{
  "listaClientes": [
    {
      "Nombre": "Scarleth",
      "Apellidos": "Gomez",
      "Email": "vale@gmail.com",
      "Celular": "52648312",
      "Hora": "11:00",
      "Servicio": "Pagina Web",
      "Fecha": "2022-07-05T04:00:00.000Z",
      "Descripcion": "registrame",
      "id": 1
    },
    {
      "Nombre": "dsfvsdf",
      "Apellidos": "zdxcdxczdxc",
      "Email": "kcmxkvmxkcm@gmail.com",
      "Celular": "4444444444",
      "Hora": "18:13",
      "Servicio": "Pagina Web",
      "Fecha": "2022-07-21T04:00:00.000Z",
      "Descripcion": "njbbn",
      "id": 2
    },
    {
      "Nombre": "cxvxcv",
      "Apellidos": "vxcvxcvxc",
      "Email": "vale@gmail.com",
      "Celular": "44444444",
      "Hora": "15:00",
      "Servicio": "Gestion de Redes",
      "Fecha": "2022-07-27T04:00:00.000Z",
      "Descripcion": "cxvxcvxcvxcvxc",
      "id": 3
    }
  ],
  "comments": [
    {
      "id": 1,
      "body": "some comment",
      "postId": 1
    }
  ],
  "profile": {
    "name": "typicode"
  }
}